{
    "border": "pixel",
    "current_border_width": 4,
    "floating": "auto_off",
    "geometry": {
       "height": 412,
       "width": 644,
       "x": 0,
       "y": 0
    },
    "percent": 0.5,
    "swallows": [
       {
        "class": "URxvt",
        "instance": "htop-container1"
       }
    ],
    "type": "con"
}

{
    "border": "pixel",
    "floating": "auto_off",
    "layout": "splitv",
    "percent": 0.5,
    "type": "con",
    "nodes": [
        {
            "border": "pixel",
            "current_border_width": 4,
            "floating": "auto_off",
            "geometry": {
               "height": 412,
               "width": 644,
               "x": 0,
               "y": 0
            },
            "percent": 0.5,
            "swallows": [
               {
                "class": "URxvt",
                "instance": "neofetch-container1"
               }
            ],
            "type": "con"
        },
        {
            "border": "pixel",
            "current_border_width": 4,
            "floating": "auto_off",
            "geometry": {
               "height": 412,
               "width": 644,
               "x": 0,
               "y": 0
            },
            "percent": 0.5,
            "swallows": [
               {
                "class": "URxvt",
                "instance": "s-tui-container1"
               }
            ],
            "type": "con"
        }
    ]
}

